CSC3007 Palegoldenrod Part 1
…
# Convert to index
data_2018_clean <- data_2018_clean |>
  mutate(
    `Schooling Index` =
      ((`Learning-Adjusted Years of School` - min_years)
      / (max_years - min_years)) * 100
  )

data_2018_clean

# A tibble: 36 × 9
   Entity             Code   Year Learning-Adjusted Yea…¹ Corruption Perceptio…²
   <chr>              <chr> <dbl>                   <dbl>                  <dbl>
 1 Belgium            BEL    2018                   11.2                      75
 2 China              CHN    2018                    9.87                     39
 3 Croatia            HRV    2018                   10.8                      48
 4 Dominican Republic DOM    2018                    6.68                     30
 5 Egypt              EGY    2018                    6.50                     35
 6 Finland            FIN    2018                   12.0                      85
 7 France             FRA    2018                   11.2                      68
 8 Greece             GRC    2018                   10.1                      45
 9 Hong Kong          HKG    2018                   12.0                      76
10 Hungary            HUN    2018                   10.7                      46
# ℹ 26 more rows
# ℹ abbreviated names: ¹​`Learning-Adjusted Years of School`,
#   ²​`Corruption Perception Index - Transparency International (2018)`
# ℹ 4 more variables: `Population (historical estimates)` <dbl>,
#   Continent <chr>, Global_Region <chr>, `Schooling Index` <dbl>
…
